…
Since the equations in Cieszewski et al 2021 were developed with Clark
et al 1986, both of them were very similar. Thus, decided to use the
newer Cieszewski et al 2021.

There are 2 elm trees: Clark and Jenkins.

``` r
veg_rm[veg_rm$SPP == 'elm',]
```

    ## # A tibble: 21 × 13
    ##    stands plot  ID    SPP   DBH_yr0_in DBH_yr1_in DBH_yr3_in Notes  h_ft Diff_in
    ##    <chr>  <chr> <chr> <chr>      <dbl>      <dbl>      <dbl> <chr> <dbl>   <dbl>
    ##  1 AB     1     181   elm          5.7       5.6        5.68 <NA>   42.4 -0.100 
    ##  2 AB     1     184   elm          4         4          4.05 <NA>   23.1  0     
    ##  3 AB     3     111   elm          3.8       3.9        3.94 <NA>   28.2  0.100 
    ##  4 AB     3     112   elm          5.4       5.45       5.55 <NA>   33.6  0.0500
    ##  5 AB     3     113   elm          5.7       5.8        5.91 <NA>   41.5  0.100 
    ##  6 AB     3     116   elm          5.8       5.9        6.19 <NA>   37.1  0.100 
    ##  7 AB     3     117   elm          3.7       3.9        4.1  <NA>   26.9  0.200 
    ##  8 AB     3     119   elm          5.5       6.1        6.1  <NA>   52.9  0.600 
    ##  9 <NA>   <NA>  <NA>  <NA>        NA        NA         NA    <NA>   NA   NA     
    ## 10 <NA>   <NA>  <NA>  <NA>        NA        NA         NA    <NA>   NA   NA     
    ## # ℹ 11 more rows
    ## # ℹ 3 more variables: DBH_yr0_avg_in <dbl>, DBH_yr1_avg_in <dbl>,
    ## #   Diff_avg_in <dbl>
…
